…
# Combine chef names and info
df_chef_info_raw <- 
  bind_cols(
    df_chef, df_info
  ) %>% 
  select("Chef_Name", "Info", "series_episode", "num")

df_chef
```

    ## # A tibble: 2,276 x 3
    ##    Chef_Name           Number      series_episode
    ##    <chr>               <chr>                <dbl>
    ##  1 Summer Kriegshauser contestant1              1
    ##  2 Perry Pollaci       contestant2              1
    ##  3 Katie Rosenhouse    contestant3              1
    ##  4 Sandy Davis         contestant4              1
    ##  5 Raymond Jackson     contestant1              2
    ##  6 Klaus Kronsteiner   contestant2              2
    ##  7 Christopher Jackson contestant3              2
    ##  8 Pippa Calland       contestant4              2
    ##  9 Margaritte Malfy    contestant1              3
    ## 10 Rachelle Rodwell    contestant2              3
    ## # … with 2,266 more rows

``` r
df_info
```

    ## # A tibble: 2,276 x 2
    ##    num            Info                                                          
    ##    <chr>          <chr>                                                         
    ##  1 contestant1_i… Private Chef and Nutrition Coach  New York  NY                
    ##  2 contestant2_i… Private Chef and Sous chef  Bar Blanc  New York  NY           
    ##  3 contestant3_i… Pastry Chef  Olana Restaurant  New York  NY                   
    ##  4 contestant4_i… Catering Chef  Showstoppers Catering at Union Theological Sem…
    ##  5 contestant1_i… Private Caterer and Culinary Instructor  Westchester County  …
    ##  6 contestant2_i… Chef de cuisine  Liberty National Golf Course  Jersey City  NJ
    ##  7 contestant3_i… Executive Chef and Owner  Ted and Honey  Brooklyn  NY         
    ##  8 contestant4_i… Owner and Chef  Chef for Hire LLC  Newville  PA               
    ##  9 contestant1_i… Executive Chef and Co-owner  La Palapa  New York  NY          
    ## 10 contestant2_i… Chef de cuisine  SoHo Grand Hotel  New York  NY               
    ## # … with 2,266 more rows

``` r
df_chef_info_raw
```

    ## # A tibble: 2,276 x 4
    ##    Chef_Name      Info                                  series_episode num      
    ##    <chr>          <chr>                                          <dbl> <chr>    
    ##  1 Summer Kriegs… Private Chef and Nutrition Coach  Ne…              1 contesta…
    ##  2 Perry Pollaci  Private Chef and Sous chef  Bar Blan…              1 contesta…
    ##  3 Katie Rosenho… Pastry Chef  Olana Restaurant  New Y…              1 contesta…
    ##  4 Sandy Davis    Catering Chef  Showstoppers Catering…              1 contesta…
    ##  5 Raymond Jacks… Private Caterer and Culinary Instruc…              2 contesta…
    ##  6 Klaus Kronste… Chef de cuisine  Liberty National Go…              2 contesta…
    ##  7 Christopher J… Executive Chef and Owner  Ted and Ho…              2 contesta…
    ##  8 Pippa Calland  Owner and Chef  Chef for Hire LLC  N…              2 contesta…
    ##  9 Margaritte Ma… Executive Chef and Co-owner  La Pala…              3 contesta…
    ## 10 Rachelle Rodw… Chef de cuisine  SoHo Grand Hotel  N…              3 contesta…
    ## # … with 2,266 more rows
…
df_chef_info_process
```

    ## # A tibble: 2,276 x 5
    ##    Chef_Name          State series_episode Profession               place       
    ##    <chr>              <chr>          <dbl> <chr>                    <chr>       
    ##  1 Summer Kriegshaus… NY                 1 Private, Chef            first_chopp…
    ##  2 Perry Pollaci      NY                 1 Private, Sous, Chef      second_chop…
    ##  3 Katie Rosenhouse   NY                 1 Pastry, Chef             third_chopp…
    ##  4 Sandy Davis        NY                 1 Catering, Chef           winner      
    ##  5 Raymond Jackson    NY                 2 Private, Instructor, Ch… first_chopp…
    ##  6 Klaus Kronsteiner  NJ                 2 Chef                     second_chop…
    ##  7 Christopher Jacks… NY                 2 Owner, Executive, Chef   third_chopp…
    ##  8 Pippa Calland      PA                 2 Owner, Chef              winner      
    ##  9 Margaritte Malfy   NY                 3 Executive, Chef          first_chopp…
    ## 10 Rachelle Rodwell   NY                 3 Chef                     second_chop…
    ## # … with 2,266 more rows
…
